EESchema Schematic File Version 4
EELAYER 30 0
EELAYER END
$Descr A4 11693 8268
encoding utf-8
Sheet 4 4
Title ""
Date ""
Rev ""
Comp ""
Comment1 ""
Comment2 ""
Comment3 ""
Comment4 ""
$EndDescr
Text HLabel 2350 3500 0    50   Input ~ 0
D0-7
Text HLabel 5150 3600 2    50   Output ~ 0
GND
$Comp
L Switch:SW_Push SW1
U 1 1 62ADF8C7
P 3850 2400
F 0 "SW1" H 3850 2593 50  0000 C CNN
F 1 "SW_Push" H 3850 2594 50  0001 C CNN
F 2 "" H 3850 2600 50  0001 C CNN
F 3 "~" H 3850 2600 50  0001 C CNN
	1    3850 2400
	1    0    0    -1  
$EndComp
$Comp
L Switch:SW_Push SW2
U 1 1 62AE0AE3
P 3850 2750
F 0 "SW2" H 3850 2943 50  0000 C CNN
F 1 "SW_Push" H 3850 2944 50  0001 C CNN
F 2 "" H 3850 2950 50  0001 C CNN
F 3 "~" H 3850 2950 50  0001 C CNN
	1    3850 2750
	1    0    0    -1  
$EndComp
$Comp
L Switch:SW_Push SW3
U 1 1 62AE0E81
P 3850 3100
F 0 "SW3" H 3850 3293 50  0000 C CNN
F 1 "SW_Push" H 3850 3294 50  0001 C CNN
F 2 "" H 3850 3300 50  0001 C CNN
F 3 "~" H 3850 3300 50  0001 C CNN
	1    3850 3100
	1    0    0    -1  
$EndComp
$Comp
L Switch:SW_Push SW5
U 1 1 62AE1663
P 3850 3400
F 0 "SW5" H 3850 3593 50  0000 C CNN
F 1 "SW_Push" H 3850 3594 50  0001 C CNN
F 2 "" H 3850 3600 50  0001 C CNN
F 3 "~" H 3850 3600 50  0001 C CNN
	1    3850 3400
	1    0    0    -1  
$EndComp
$Comp
L Switch:SW_Push SW6
U 1 1 62AE1B4A
P 3850 3750
F 0 "SW6" H 3850 3943 50  0000 C CNN
F 1 "SW_Push" H 3850 3944 50  0001 C CNN
F 2 "" H 3850 3950 50  0001 C CNN
F 3 "~" H 3850 3950 50  0001 C CNN
	1    3850 3750
	1    0    0    -1  
$EndComp
$Comp
L Switch:SW_Push SW7
U 1 1 62AE1ED8
P 3850 4100
F 0 "SW7" H 3850 4293 50  0000 C CNN
F 1 "SW_Push" H 3850 4294 50  0001 C CNN
F 2 "" H 3850 4300 50  0001 C CNN
F 3 "~" H 3850 4300 50  0001 C CNN
	1    3850 4100
	1    0    0    -1  
$EndComp
$Comp
L Switch:SW_Push SW8
U 1 1 62AE22BF
P 3850 4450
F 0 "SW8" H 3850 4643 50  0000 C CNN
F 1 "SW_Push" H 3850 4644 50  0001 C CNN
F 2 "" H 3850 4650 50  0001 C CNN
F 3 "~" H 3850 4650 50  0001 C CNN
	1    3850 4450
	1    0    0    -1  
$EndComp
$Comp
L Device:Speaker REPRO
U 1 1 62AE2E41
P 3800 4900
F 0 "REPRO" V 3763 4620 50  0000 R CNN
F 1 "Speaker" V 3718 4620 50  0001 R CNN
F 2 "" H 3800 4700 50  0001 C CNN
F 3 "~" H 3790 4850 50  0001 C CNN
	1    3800 4900
	0    -1   1    0   
$EndComp
Wire Wire Line
	2350 3500 2800 3500
Wire Wire Line
	2800 2400 3650 2400
Wire Wire Line
	2800 4700 3800 4700
Connection ~ 2800 3500
Wire Wire Line
	3650 4450 2800 4450
Connection ~ 2800 4450
Wire Wire Line
	2800 4450 2800 4700
Wire Wire Line
	3650 4100 2800 4100
Connection ~ 2800 4100
Wire Wire Line
	2800 4100 2800 4450
Wire Wire Line
	3650 3750 2800 3750
Wire Wire Line
	2800 3500 2800 3750
Connection ~ 2800 3750
Wire Wire Line
	2800 3750 2800 4100
Wire Wire Line
	3650 3400 2800 3400
Wire Wire Line
	2800 2400 2800 2750
Connection ~ 2800 3400
Wire Wire Line
	2800 3400 2800 3500
Wire Wire Line
	3650 3100 2800 3100
Connection ~ 2800 3100
Wire Wire Line
	2800 3100 2800 3400
Wire Wire Line
	3650 2750 2800 2750
Connection ~ 2800 2750
Wire Wire Line
	2800 2750 2800 3100
Wire Wire Line
	5150 3600 5000 3600
Wire Wire Line
	5000 2400 4050 2400
Wire Wire Line
	5000 4700 3900 4700
Wire Wire Line
	4050 4450 5000 4450
Connection ~ 5000 4450
Wire Wire Line
	5000 4450 5000 4700
Wire Wire Line
	5000 4100 4050 4100
Connection ~ 5000 4100
Wire Wire Line
	5000 4100 5000 4450
Wire Wire Line
	4050 3750 5000 3750
Connection ~ 5000 3750
Wire Wire Line
	5000 3750 5000 4100
Wire Wire Line
	5000 3400 4050 3400
Connection ~ 5000 3400
Wire Wire Line
	5000 3400 5000 3100
Wire Wire Line
	4050 3100 5000 3100
Connection ~ 5000 3100
Wire Wire Line
	5000 3100 5000 2750
Wire Wire Line
	5000 2750 4050 2750
Connection ~ 5000 2750
Wire Wire Line
	5000 2750 5000 2400
Connection ~ 5000 3600
Wire Wire Line
	5000 3600 5000 3750
Wire Wire Line
	5000 3400 5000 3600
$EndSCHEMATC
