EESchema Schematic File Version 4
EELAYER 30 0
EELAYER END
$Descr A4 11693 8268
encoding utf-8
Sheet 2 4
Title ""
Date ""
Rev ""
Comp ""
Comment1 ""
Comment2 ""
Comment3 ""
Comment4 ""
$EndDescr
$Comp
L Device:R R1
U 1 1 62ACCEA8
P 3350 1900
F 0 "R1" V 3235 1900 50  0000 C CNN
F 1 "R" V 3234 1900 50  0001 C CNN
F 2 "" V 3280 1900 50  0001 C CNN
F 3 "~" H 3350 1900 50  0001 C CNN
	1    3350 1900
	0    1    1    0   
$EndComp
$Comp
L Device:R R2
U 1 1 62ACDF53
P 3350 2150
F 0 "R2" V 3235 2150 50  0000 C CNN
F 1 "R" V 3234 2150 50  0001 C CNN
F 2 "" V 3280 2150 50  0001 C CNN
F 3 "~" H 3350 2150 50  0001 C CNN
	1    3350 2150
	0    1    1    0   
$EndComp
$Comp
L Device:R R3
U 1 1 62ACE213
P 3350 2400
F 0 "R3" V 3235 2400 50  0000 C CNN
F 1 "R" V 3234 2400 50  0001 C CNN
F 2 "" V 3280 2400 50  0001 C CNN
F 3 "~" H 3350 2400 50  0001 C CNN
	1    3350 2400
	0    1    1    0   
$EndComp
$Comp
L Device:R R4
U 1 1 62ACE6A4
P 3350 2650
F 0 "R4" V 3235 2650 50  0000 C CNN
F 1 "R" V 3234 2650 50  0001 C CNN
F 2 "" V 3280 2650 50  0001 C CNN
F 3 "~" H 3350 2650 50  0001 C CNN
	1    3350 2650
	0    1    1    0   
$EndComp
$Comp
L Device:R R5
U 1 1 62ACE8B4
P 3350 2900
F 0 "R5" V 3235 2900 50  0000 C CNN
F 1 "R" V 3234 2900 50  0001 C CNN
F 2 "" V 3280 2900 50  0001 C CNN
F 3 "~" H 3350 2900 50  0001 C CNN
	1    3350 2900
	0    1    1    0   
$EndComp
$Comp
L Device:R R6
U 1 1 62ACEA65
P 3350 3150
F 0 "R6" V 3235 3150 50  0000 C CNN
F 1 "R" V 3234 3150 50  0001 C CNN
F 2 "" V 3280 3150 50  0001 C CNN
F 3 "~" H 3350 3150 50  0001 C CNN
	1    3350 3150
	0    1    1    0   
$EndComp
$Comp
L Device:R R7
U 1 1 62ACEC50
P 3350 3400
F 0 "R7" V 3235 3400 50  0000 C CNN
F 1 "R" V 3234 3400 50  0001 C CNN
F 2 "" V 3280 3400 50  0001 C CNN
F 3 "~" H 3350 3400 50  0001 C CNN
	1    3350 3400
	0    1    1    0   
$EndComp
$Comp
L Device:R R8
U 1 1 62ACEEBA
P 3350 3650
F 0 "R8" V 3235 3650 50  0000 C CNN
F 1 "R" V 3234 3650 50  0001 C CNN
F 2 "" V 3280 3650 50  0001 C CNN
F 3 "~" H 3350 3650 50  0001 C CNN
	1    3350 3650
	0    1    1    0   
$EndComp
$Comp
L Device:LED D1
U 1 1 62ACF3BB
P 3850 1900
F 0 "D1" H 3843 1736 50  0000 C CNN
F 1 "LED" H 3843 1736 50  0001 C CNN
F 2 "" H 3850 1900 50  0001 C CNN
F 3 "~" H 3850 1900 50  0001 C CNN
	1    3850 1900
	-1   0    0    1   
$EndComp
$Comp
L Device:LED D2
U 1 1 62ACFE43
P 3850 2150
F 0 "D2" H 3843 1986 50  0000 C CNN
F 1 "LED" H 3843 1986 50  0001 C CNN
F 2 "" H 3850 2150 50  0001 C CNN
F 3 "~" H 3850 2150 50  0001 C CNN
	1    3850 2150
	-1   0    0    1   
$EndComp
$Comp
L Device:LED D3
U 1 1 62AD02C7
P 3850 2400
F 0 "D3" H 3843 2236 50  0000 C CNN
F 1 "LED" H 3843 2236 50  0001 C CNN
F 2 "" H 3850 2400 50  0001 C CNN
F 3 "~" H 3850 2400 50  0001 C CNN
	1    3850 2400
	-1   0    0    1   
$EndComp
$Comp
L Device:LED D4
U 1 1 62AD0815
P 3850 2650
F 0 "D4" H 3843 2486 50  0000 C CNN
F 1 "LED" H 3843 2486 50  0001 C CNN
F 2 "" H 3850 2650 50  0001 C CNN
F 3 "~" H 3850 2650 50  0001 C CNN
	1    3850 2650
	-1   0    0    1   
$EndComp
$Comp
L Device:LED D5
U 1 1 62AD0B5F
P 3850 2900
F 0 "D5" H 3843 2736 50  0000 C CNN
F 1 "LED" H 3843 2736 50  0001 C CNN
F 2 "" H 3850 2900 50  0001 C CNN
F 3 "~" H 3850 2900 50  0001 C CNN
	1    3850 2900
	-1   0    0    1   
$EndComp
$Comp
L Device:LED D6
U 1 1 62AD0EB2
P 3850 3150
F 0 "D6" H 3843 2986 50  0000 C CNN
F 1 "LED" H 3843 2986 50  0001 C CNN
F 2 "" H 3850 3150 50  0001 C CNN
F 3 "~" H 3850 3150 50  0001 C CNN
	1    3850 3150
	-1   0    0    1   
$EndComp
$Comp
L Device:LED D7
U 1 1 62AD10C7
P 3850 3400
F 0 "D7" H 3843 3236 50  0000 C CNN
F 1 "LED" H 3843 3236 50  0001 C CNN
F 2 "" H 3850 3400 50  0001 C CNN
F 3 "~" H 3850 3400 50  0001 C CNN
	1    3850 3400
	-1   0    0    1   
$EndComp
$Comp
L Device:LED D8
U 1 1 62AD191F
P 3850 3650
F 0 "D8" H 3843 3486 50  0000 C CNN
F 1 "LED" H 3843 3486 50  0001 C CNN
F 2 "" H 3850 3650 50  0001 C CNN
F 3 "~" H 3850 3650 50  0001 C CNN
	1    3850 3650
	-1   0    0    1   
$EndComp
Text HLabel 2300 2550 0    50   Input ~ 0
B0-7
Text HLabel 4800 2550 2    50   Output ~ 0
GND
Wire Wire Line
	4700 1900 4000 1900
Wire Wire Line
	4700 3650 4000 3650
Wire Wire Line
	2300 1900 3200 1900
Wire Wire Line
	2300 3650 3200 3650
Wire Wire Line
	2300 1900 2300 2150
Wire Wire Line
	4000 3400 4700 3400
Connection ~ 4700 3400
Wire Wire Line
	4700 3400 4700 3650
Wire Wire Line
	4000 3150 4700 3150
Connection ~ 4700 3150
Wire Wire Line
	4700 3150 4700 3400
Wire Wire Line
	4700 2900 4000 2900
Connection ~ 4700 2900
Wire Wire Line
	4700 2900 4700 3150
Wire Wire Line
	4000 2650 4700 2650
Connection ~ 4700 2650
Wire Wire Line
	4700 2650 4700 2900
Wire Wire Line
	4700 2400 4000 2400
Connection ~ 4700 2400
Wire Wire Line
	4700 1900 4700 2150
Wire Wire Line
	4000 2150 4700 2150
Connection ~ 4700 2150
Wire Wire Line
	4700 2150 4700 2400
Wire Wire Line
	3700 1900 3500 1900
Wire Wire Line
	3500 2150 3700 2150
Wire Wire Line
	3700 2400 3500 2400
Wire Wire Line
	3500 2650 3700 2650
Wire Wire Line
	3700 2900 3500 2900
Wire Wire Line
	3500 3150 3700 3150
Wire Wire Line
	3700 3400 3500 3400
Wire Wire Line
	3500 3650 3700 3650
Wire Wire Line
	3200 3400 2300 3400
Connection ~ 2300 3400
Wire Wire Line
	2300 3400 2300 3650
Wire Wire Line
	3200 3150 2300 3150
Connection ~ 2300 3150
Wire Wire Line
	2300 3150 2300 3400
Wire Wire Line
	3200 2900 2300 2900
Connection ~ 2300 2900
Wire Wire Line
	2300 2900 2300 3150
Wire Wire Line
	3200 2650 2300 2650
Connection ~ 2300 2650
Wire Wire Line
	2300 2650 2300 2900
Wire Wire Line
	3200 2400 2300 2400
Connection ~ 2300 2400
Wire Wire Line
	2300 2400 2300 2650
Wire Wire Line
	3200 2150 2300 2150
Connection ~ 2300 2150
Wire Wire Line
	2300 2150 2300 2400
Wire Wire Line
	4700 2400 4700 2550
Wire Wire Line
	4800 2550 4700 2550
Connection ~ 4700 2550
Wire Wire Line
	4700 2550 4700 2650
$EndSCHEMATC
